<?xml version="1.0" encoding="utf-8"?>
<!-- Generator: Adobe Illustrator 22.0.1, SVG Export Plug-In . SVG Version: 6.00 Build 0)  -->
<svg version="1.1" id="Layer_1" xmlns="http://www.w3.org/2000/svg" xmlns:xlink="http://www.w3.org/1999/xlink" x="0px" y="0px"
	 viewBox="0 0 66 66" style="enable-background:new 0 0 66 66;" xml:space="preserve">
<style type="text/css">
	.st0{fill:#59798F;}
	.st1{fill:#6693BC;}
	.st2{fill:#023D69;}
</style>
<polygon class="st0" points="49.5,49.2 49.3,49.5 16.5,49.5 16.5,44.4 8.3,49.2 0,44.5 0,66.1 66,66.1 66,49.2 57.8,44.4 "/>
<polygon class="st1" points="0,0.1 0,39.4 8.3,44.4 16.5,39.4 16.5,16.6 49.5,16.6 49.5,44.4 57.8,39.4 66,44.4 66,0.1 "/>
<rect x="20.5" y="20.6" class="st2" width="25" height="25"/>
</svg>
