<?xml version="1.0" encoding="utf-8"?>
<!-- Generator: Adobe Illustrator 17.1.0, SVG Export Plug-In . SVG Version: 6.00 Build 0)  -->
<!DOCTYPE svg PUBLIC "-//W3C//DTD SVG 1.1//EN" "http://www.w3.org/Graphics/SVG/1.1/DTD/svg11.dtd">
<svg version="1.1" id="Layer_1" xmlns="http://www.w3.org/2000/svg" xmlns:xlink="http://www.w3.org/1999/xlink" x="0px" y="0px"
	 viewBox="0 0 300 34.97" enable-background="new 0 0 300 34.97" xml:space="preserve">
<path fill="#FFFFFF" d="M115.713,19.551h-9.939c1.603-4.841,3.349-9.589,4.844-13.851h0.15L115.713,19.551z M129.506,34.327v-1.402
	c-2.891-0.247-3.434-0.392-4.34-2.903L114.498,0.807h-4.279l-5.236,14.341c-1.553,4.211-3.65,10.024-5.395,14.432
	c-1.048,2.614-1.496,3.194-4.644,3.344v1.402h10.988v-1.402l-2.596-0.247c-1.496-0.145-1.651-0.624-1.25-1.935
	c0.847-2.903,1.897-5.905,3.048-9.351h11.175l3.339,9.251c0.503,1.411,0.257,1.939-1.342,2.088l-2.25,0.193v1.402H129.506z"/>
<path fill="#FFFFFF" d="M131.278,34.327v-1.358l1.592-0.14c0.85-0.098,1.647-0.489,1.793-1.451c0.154-1.118,0.256-2.428,0.256-4.268
	V14.131c0-2.517-0.304-2.576-3.847-2.762v-1.357h10.024c1.184,2.805,7.505,17.813,7.505,17.813h0.153c0,0,6.63-15.008,7.778-17.813
	h9.787v1.357c-3.597,0.186-3.84,0.244-3.84,2.762V30.21c0,2.521,0.3,2.564,3.84,2.759v1.358h-12.483v-1.358
	c3.498-0.195,3.741-0.238,3.741-2.759V13.011h-0.189l-9.395,21.315h-1.598l-9.232-21.315h-0.203V27.11
	c0,1.839,0.102,3.149,0.248,4.268c0.155,0.963,0.852,1.299,2.154,1.451l1.745,0.14v1.358H131.278z"/>
<path fill="#FFFFFF" d="M191.343,10.013v6.105h-1.397c-0.548-4.021-2.442-4.504-6.19-4.504h-3.64c-0.854,0-1.101,0.332-1.101,1.204
	v8.324h4.792c3.241,0,3.89-0.576,4.241-3.193h1.393v7.993h-1.393c-0.351-2.619-0.999-3.202-4.241-3.202h-4.792v6.696
	c0,1.405,0.247,2.226,0.801,2.661c0.543,0.395,2.136,0.635,4.445,0.635c2.795,0,4.535-0.294,5.439-1.07
	c0.74-0.721,1.339-2.422,1.642-3.924h1.397l-0.449,6.59h-22.222v-1.358c3.601-0.195,3.846-0.238,3.846-2.759V14.131
	c0-2.517-0.291-2.576-3.846-2.762v-1.357H191.343z"/>
<path fill="#FFFFFF" d="M206.396,21.491v-8.378c0-1.31,0.998-1.499,3.348-1.499c2.49,0,5.536,0.824,5.536,4.987
	c0,3.389-1.99,4.89-5.392,4.89H206.396z M209.596,23.087c2.145,0,3.319,0.642,3.889,1.795c0.784,1.589,0.823,4.183,1.745,6.586
	c0.749,1.921,1.918,2.859,5.034,2.859h3.508v-1.358c-0.947,0-2.007-0.271-2.596-0.917c-0.449-0.5-1.042-1.122-1.442-3.54
	c-0.522-3.047-1.156-5.328-5.147-6.197v-0.096c3.544-0.392,6.14-2.514,6.14-5.91c0-3.635-2.394-6.295-9.182-6.295h-14.082v1.357
	c3.538,0.186,3.835,0.244,3.835,2.762V30.21c0,2.521-0.25,2.564-3.835,2.759v1.358h12.777v-1.358
	c-3.542-0.195-3.845-0.238-3.845-2.759v-7.122H209.596z"/>
<path fill="#FFFFFF" d="M235.083,30.208c0,2.521,0.297,2.564,3.845,2.758v1.359H226.14v-1.359c3.595-0.194,3.847-0.236,3.847-2.758
	V14.129c0-2.517-0.303-2.576-3.847-2.76v-1.358h12.788v1.358c-3.596,0.184-3.845,0.243-3.845,2.76V30.208z"/>
<path fill="#FFFFFF" d="M265.045,17.082h-1.398c-0.749-3.05-2.286-6.052-7.185-6.052c-5.887-0.099-8.735,4.794-8.735,10.945
	c0,4.261,1.346,11.334,8.887,11.334c5.283,0,6.535-3.099,7.779-6.49h1.4l-0.601,6.49c-2.693,1.166-5.785,1.6-9.031,1.6
	c-4.541,0-8.186-1.015-10.486-3.195c-2.298-2.182-3.499-5.331-3.499-9.345c0-4.22,1.301-7.269,3.799-9.598
	c2.343-2.223,6.294-3.344,10.732-3.344c2.845,0.1,6.098,0.444,8.338,1.451V17.082z"/>
<path fill="#FFFFFF" d="M283.362,23.865h-7.239l3.643-10.029h0.102L283.362,23.865z M294.952,34.327v-1.358
	c-2.291-0.093-3.05-0.195-3.649-1.79l-7.88-21.165h-4.248l-3.998,10.749c-1.095,2.96-2.695,7.274-3.843,10.031
	c-0.699,1.74-1.302,2.036-3.84,2.176v1.358h9.281v-1.358l-2.292-0.195c-1.06-0.096-1.06-0.678-0.856-1.498
	c0.402-1.452,1.194-3.824,1.946-5.812h8.342l2.189,5.958c0.302,0.821,0.302,1.353-0.703,1.408l-1.982,0.14v1.358H294.952z"/>
<path fill="#FFFFFF" d="M17.086,1.694c8.882,0,10.926,8.669,11.029,15.793c-0.102,7.117-2.147,15.786-11.029,15.786
	c-8.891,0-10.938-8.668-11.041-15.786C6.148,10.362,8.195,1.694,17.086,1.694z M17.086,0C11.589,0,7.192,1.644,4.394,4.696
	C1.7,7.599,0,12.014,0,17.487c0,5.42,1.7,9.876,4.394,12.785c2.798,3.056,7.195,4.697,12.692,4.697c5.54,0,9.885-1.641,12.681-4.697
	c2.749-2.91,4.395-7.366,4.395-12.785c0-5.473-1.645-9.888-4.395-12.791C26.971,1.644,22.626,0,17.086,0z"/>
<path fill="#FFFFFF" d="M47.19,9.933c4.544,6.246,8.775,12.095,13.227,18.25h0.187V17.291c0-1.842-0.098-3.102-0.247-4.265
	c-0.143-1.066-0.846-1.452-2.095-1.549l-1.948-0.193V9.933h9.984v1.351l-1.598,0.193c-0.85,0.098-1.599,0.581-1.749,1.408
	c-0.143,1.304-0.299,2.564-0.299,4.406v16.955H58.5c-5.033-6.932-9.811-13.523-14.869-20.632h-0.198v13.267
	c0,1.841,0.098,3.146,0.249,4.265c0.148,1.108,0.849,1.451,2.143,1.545l1.855,0.195v1.36h-9.94v-1.36l1.597-0.195
	c0.853-0.094,1.598-0.436,1.798-1.545c0.149-1.119,0.249-2.424,0.249-4.265V14.048c0-2.518-0.298-2.571-3.844-2.764V9.933H47.19z"/>
<path fill="#FFFFFF" d="M90.313,9.933v6.101h-1.398c-0.554-4.02-2.455-4.504-6.197-4.504h-3.639c-0.849,0-1.098,0.339-1.098,1.204
	v8.327h4.79c3.241,0,3.892-0.578,4.244-3.198h1.398v7.997h-1.398c-0.352-2.619-1.002-3.202-4.244-3.202h-4.79v6.697
	c0,1.403,0.248,2.225,0.799,2.66c0.549,0.396,2.148,0.633,4.444,0.633c2.796,0,4.541-0.292,5.437-1.068
	c0.751-0.722,1.349-2.422,1.652-3.92h1.396l-0.452,6.587H69.043v-1.36c3.597-0.195,3.844-0.239,3.844-2.763V14.048
	c0-2.518-0.305-2.571-3.844-2.764V9.933H90.313z"/>
<path fill="#FFFFFF" d="M290.12,8.05c0-2.714,2.212-4.899,4.94-4.899c2.727,0,4.939,2.185,4.939,4.899s-2.212,4.899-4.939,4.899
	C292.333,12.949,290.12,10.764,290.12,8.05z M290.99,8.05c0,2.402,1.792,4.288,4.071,4.288c2.279,0,4.071-1.886,4.071-4.288
	c0-2.402-1.792-4.288-4.071-4.288C292.781,3.762,290.99,5.648,290.99,8.05z M292.822,10.588v-0.271l0.421-0.054
	c0.23-0.027,0.27-0.149,0.27-0.38V6.151c0-0.258-0.041-0.367-0.27-0.407l-0.421-0.054V5.418h2.442c1.316,0,1.764,0.543,1.764,1.276
	c0,0.746-0.557,1.167-1.316,1.289V8.01c0.814,0.203,0.95,0.705,1.058,1.303c0.068,0.394,0.19,0.638,0.367,0.841
	c0.109,0.109,0.285,0.177,0.474,0.231v0.203h-0.597c-0.583,0-0.854-0.203-0.99-0.584c-0.189-0.543-0.23-1.126-0.352-1.384
	c-0.135-0.285-0.393-0.407-0.814-0.407h-0.462v1.669c0,0.231,0.055,0.353,0.299,0.38l0.407,0.054v0.271H292.822z M294.395,7.833
	h0.516c0.692,0,1.167-0.285,1.167-1.031c0-0.828-0.557-1.005-1.073-1.005c-0.556,0-0.61,0.082-0.61,0.285V7.833z"/>
</svg>
